blogpost_id,title,body,image
1,Hello world,Today is a beautiful day,https://pbs.twimg.com/profile_images/378800000532546226/dbe5f0727b69487016ffd67a6689e75a.jpeg
2,Foo bar,This blog post is sponsored by Kodamera AB,https://www.rd.com/wp-content/uploads/sites/2/2016/04/01-cat-wants-to-tell-you-laptop.jpg
3,Cat stuck in tree,A wild cat is stuck in a tree near Lindholmen,http://cdn1-www.cattime.com/assets/uploads/gallery/persian-cats-and-kittens/persian-cats-and-kittens-1.jpg
